Invoking command in '/home/mimi/mimi_ros2_ws/build/examples_rclcpp_minimal_action_server': CMAKE_PREFIX_PATH=/opt/ros/humble /usr/bin/cmake /home/mimi/mimi_ros2_ws/examples/rclcpp/actions/minimal_action_server -DAMENT_CMAKE_SYMLINK_INSTALL=1 -DCMAKE_INSTALL_PREFIX=/home/mimi/mimi_ros2_ws/install/examples_rclcpp_minimal_action_server
Invoked command in '/home/mimi/mimi_ros2_ws/build/examples_rclcpp_minimal_action_server' returned '0': CMAKE_PREFIX_PATH=/opt/ros/humble /usr/bin/cmake /home/mimi/mimi_ros2_ws/examples/rclcpp/actions/minimal_action_server -DAMENT_CMAKE_SYMLINK_INSTALL=1 -DCMAKE_INSTALL_PREFIX=/home/mimi/mimi_ros2_ws/install/examples_rclcpp_minimal_action_server
Invoking command in '/home/mimi/mimi_ros2_ws/build/examples_rclcpp_minimal_action_server': CMAKE_PREFIX_PATH=/opt/ros/humble /usr/bin/cmake --build /home/mimi/mimi_ros2_ws/build/examples_rclcpp_minimal_action_server -- -j4 -l4
Invoked command in '/home/mimi/mimi_ros2_ws/build/examples_rclcpp_minimal_action_server' returned '-2': CMAKE_PREFIX_PATH=/opt/ros/humble /usr/bin/cmake --build /home/mimi/mimi_ros2_ws/build/examples_rclcpp_minimal_action_server -- -j4 -l4
